R for Economic Research - 5 Deflating nominal values to real values
…
bea_data_tbl <- map(
  .x = bea_data,
  .f = ~ .x %>% 
    filter(LineDescription == 'Gross domestic product') %>% 
    select(TimePeriod, DataValue)
) %>% 
  plyr::ldply(.id = 'Serie') %>% 
  pivot_wider(names_from = Serie, values_from = DataValue) %>% 
  mutate(across(c(`Nominal GDP`), ~ str_remove_all(.x, ','))) %>% 
  mutate(across(-TimePeriod, ~ .x %>% as.numeric())) %>% 
  arrange(TimePeriod)
bea_data_tbl

# A tibble: 94 x 3
   TimePeriod `Nominal GDP` Deflator
   <chr>              <dbl>    <dbl>
 1 1929              104556     9.39
 2 1930               92160     9.03
 3 1931               77391     8.14
 4 1932               59522     7.21
 5 1933               57154     7.01
 6 1934               66800     7.36
 7 1935               74241     7.50
 8 1936               84830     7.60
 9 1937               93003     7.87
10 1938               87352     7.73
# ... with 84 more rows
…
