R for Economic Research - 1 Introduction
…
Now we use the httr package to connect to the API, send the request and get the content. The other steps transform the content from JSON to a standard R object (a list) and then convert it to a tibble (the tidyverse’s improved format for data frames). Notice that the CPI data is stored in the list element named observations. However, this is specific for this API and if we were to import data from another source we’d have to check in which element the data would be stored.

library(httr)
library(jsonlite)
library(tidyverse)
cpi_request <- GET(url = api_request)
cpi_content <- content(cpi_request, as = 'text')
cpi_list    <- fromJSON(cpi_content, flatten = FALSE)
cpi_tbl     <- cpi_list[['observations']] %>% as_tibble()
cpi_tbl

# A tibble: 156 x 4
   realtime_start realtime_end date       value              
   <chr>          <chr>        <chr>      <chr>              
 1 2023-04-11     2023-04-11   2010-01-01 0.34174735701485   
 2 2023-04-11     2023-04-11   2010-02-01 0.024920738207648  
 3 2023-04-11     2023-04-11   2010-03-01 0.410628353657108  
 4 2023-04-11     2023-04-11   2010-04-01 0.173688491069743  
 5 2023-04-11     2023-04-11   2010-05-01 0.0775197354237721 
 6 2023-04-11     2023-04-11   2010-06-01 -0.0976267084673888
 7 2023-04-11     2023-04-11   2010-07-01 0.0211043057371509 
 8 2023-04-11     2023-04-11   2010-08-01 0.138066427840807  
 9 2023-04-11     2023-04-11   2010-09-01 0.0581736230715569 
10 2023-04-11     2023-04-11   2010-10-01 0.124519888847696  
# ... with 146 more rows
…
For example, suppose we want to know which European country recorded the highest number of new covid cases in a single day by the mid of 2022. This might be achieved by grouping the data by location and then using summarise with max. In addition, we can use arrange to sort the rows by value (we use desc to sort in descending order). Don’t forget to ungroup data as soon as you no longer need to perform grouped operations.

covid_data_sub3 <- covid_data %>% 
  distinct() %>% 
  filter(
    continent == 'Europe',
    date <= '2021-06-30'
    ) %>% 
  group_by(location) %>% 
  summarise(max_new_cases = max(new_cases)) %>% 
  ungroup() %>% 
  arrange(desc(max_new_cases))
covid_data_sub3

# A tibble: 51 x 2
   location       max_new_cases
   <chr>                  <dbl>
 1 United Kingdom         68066
 2 Germany                45333
 3 Italy                  40902
 4 Poland                 35253
 5 Sweden                 32485
 6 Russia                 29499
 7 Belgium                23921
 8 Switzerland            21926
 9 Ukraine                20456
10 Netherlands            13037
# ... with 41 more rows
…
covid_data_sub4 <- covid_data %>% 
  distinct() %>% 
  filter(
    continent == 'Europe',
    date <= '2022-06-30',
    !is.na(new_cases)
    ) %>% 
  group_by(location) %>% 
  summarise(max_new_cases = max(new_cases)) %>% 
  ungroup() %>% 
  arrange(desc(max_new_cases))
covid_data_sub4

# A tibble: 49 x 2
   location       max_new_cases
   <chr>                  <dbl>
 1 France                117900
 2 Germany               103018
 3 Spain                  93822
 4 United Kingdom         92713
 5 Belgium                47836
 6 Italy                  40902
 7 Russia                 40210
 8 Poland                 35253
 9 Sweden                 32485
10 Ukraine                28477
# ... with 39 more rows
…
In case it went unnoticed, the previous code showed a really nice feature of mutate/summarise: you can use a variable you’ve just created in a subsequent task inside the same calling. In this example we used max_new_cases as an input in peak_date, all of this inside the same summarise calling as if all steps were performed sequentially.

In the last two lines, we used arrange to sort countries firstly by the maximum number of new cases and then by their peak date and slice to subset only the first ten countries out of the forty-nine in our data set. This ends our approach to single data sets for now.

But before we jump to the next section, there’s something very important to address: merging multiple data sets. There are two families of functions in dplyr to merge data frames, *_join and bind_*. Let’s see how they work.

The *_join functions are used to merge two data frames horizontally, matching their rows based on specified keys. For example, take the covid_data_sub5 data frame we created above. It contains the top ten European countries with the highest number of new Covid cases in a single day and their peak dates. Suppose we want to add information on the population size for each country, which is available in another data frame named europe_population displayed below.1

# A tibble: 51 x 2
   Country         Pop_size
   <chr>              <dbl>
 1 Russia         145912022
 2 Germany         83900471
 3 United Kingdom  68207114
 4 France          67564251
 5 Italy           60367471
 6 Spain           46745211
 7 Ukraine         43466822
 8 Poland          37797000
 9 Romania         19127772
10 Netherlands     17173094
# ... with 41 more rows
…
We could have been assigned a slightly different task. For example, adding to european_population the information on maximum daily number of new Covid cases and peak dates we have from covid_data_sub5. This can also be achieved with left_join by reversing the order of the data frames (and names of the key column since they’re not the same). An effortless alternative is to replace left_join with right_join, which adds to the second data frame (the one on the right) the information from the first data frame (the one on the left). In this case we don’t need to change the order of the parameters.

pop_with_covid_info <- covid_data_sub5 %>% 
  right_join(europe_population, by = c('location' = 'Country'))
pop_with_covid_info

# A tibble: 51 x 4
   location       max_new_cases peak_date   Pop_size
   <chr>                  <dbl> <date>         <dbl>
 1 France                117900 2021-04-11  67564251
 2 Germany               103018 2021-12-09  83900471
 3 Spain                  93822 2021-01-25  46745211
 4 United Kingdom         92713 2021-12-17  68207114
 5 Belgium                47836 2021-11-29  11632334
 6 Italy                  40902 2020-11-13  60367471
 7 Russia                 40210 2021-11-06 145912022
 8 Poland                 35253 2021-04-01  37797000
 9 Sweden                 32485 2020-12-29  10160159
10 Ukraine                28477 2021-11-04  43466822
# ... with 41 more rows

At first glance it seems to produce the same outcome, but notice that the number of rows are different in the two resulting data sets. In the first case left_join kept all the rows from covid_data_sub5 and only the corresponding rows from europe_population, whereas right_join did the opposite. In summary, left_join and right_join keep all the rows from just one of the two data frames.

Sometimes, however, we want to keep all the rows from both data frames. For example, imagine that covid_data_sub5 had data not only on European but on South American countries as well. In addition, the european_population data frame also included the populations from Asian countries. If we merged the data frames using the functions above, we’d end up loosing observations on either Covid in South America or populations in Asia.

In order to merge the data frames by their common countries while keeping the remaining observations from both, we should employ the full_join function. On the other hand, if we’re willing to keep only the common countries in both data frames, this is the case for the inner_join function.

These four functions comprise what it’s called mutating-joins since they add columns from one data frame to the other. There are also the filtering-joins functions, which filter the rows from one data frame based on the presence (semi_join) or absence (anti_join) of matches in the other data frame. Given the latter category is used to a much lesser extent, I won’t go into detail right now. Eventually they’ll show up in the coming chapters.

We saw that *_join* operations are particularly useful to merge data frames horizontally and by their matching rows according to key variables. More often than not we need to stack data vertically by their matching columns. For example, suppose the Covid data set was released as a single file for each country and we needed to perform some comparisons between France and the United Kingdom - covid_fr and covid_uk data sets shown below.

# A tibble: 690 x 3
   date       location       new_cases
   <date>     <chr>              <dbl>
 1 2020-01-31 United Kingdom         2
 2 2020-02-01 United Kingdom         0
 3 2020-02-02 United Kingdom         0
 4 2020-02-03 United Kingdom         6
 5 2020-02-04 United Kingdom         0
 6 2020-02-05 United Kingdom         1
 7 2020-02-06 United Kingdom         0
 8 2020-02-07 United Kingdom         0
 9 2020-02-08 United Kingdom         4
10 2020-02-09 United Kingdom         1
# ... with 680 more rows

# A tibble: 697 x 4
   date       location new_cases total_cases
   <date>     <chr>        <dbl>       <dbl>
 1 2020-01-24 France           2           2
 2 2020-01-25 France           1           3
 3 2020-01-26 France           0           3
 4 2020-01-27 France           0           3
 5 2020-01-28 France           1           4
 6 2020-01-29 France           1           5
 7 2020-01-30 France           0           5
 8 2020-01-31 France           0           5
 9 2020-02-01 France           1           6
10 2020-02-02 France           0           6
# ... with 687 more rows

This can be easily accomplished by bind_rows which, unlike the *_join family, allows us to provide several data frames. What’s cool about bind_rows is that non-matching columns are kept with their values filled with NA for the data frames where the column is absent. In the example above, the covid_fr data set has a total cases column which is absent in covid_uk.

covid_fr_uk <- bind_rows(covid_fr, covid_uk)
covid_fr_uk

# A tibble: 1,387 x 4
   date       location new_cases total_cases
   <date>     <chr>        <dbl>       <dbl>
 1 2020-01-24 France           2           2
 2 2020-01-25 France           1           3
 3 2020-01-26 France           0           3
 4 2020-01-27 France           0           3
 5 2020-01-28 France           1           4
 6 2020-01-29 France           1           5
 7 2020-01-30 France           0           5
 8 2020-01-31 France           0           5
 9 2020-02-01 France           1           6
10 2020-02-02 France           0           6
# ... with 1,377 more rows
…
Tidy data is also known as wide format – since it increases the number of columns and decreases the number of rows –, as opposed to the long format, where data are stacked increasing the number of rows and decreasing the number of columns. It took me a while before I could tell if a data set was either in wide or long format, so don’t worry if it’s not so clear right now. Perhaps a more direct way of thinking about this distinction is to ask yourself: Is all the information contained in a single cell?. If so, it’s wide format. If not, then it’s long format.

For example, is the Covid data set in wide or long format? If we took a single cell from the new_cases column, does it convey all the information for this variable contained in the data set? No, it doesn’t. We know the number of new cases in a given date, but we don’t know the country that value refers to – is this from Germany? Nigeria? Chile?

We can use the pivot_wider function from tidyr package to convert from long to wide format. The syntax is very easy to understand: names_from is the column we want to widen, whereas values_from is the column containing the observations that will fill each cell. id_cols is a parameter used to declare the set of columns that uniquely identifies each observation. In practice, it drops all the other columns in the data set. Hence, if we want to keep all the other variables, just skip it.

covid_wide_01 <- covid_data %>% 
  pivot_wider(
    id_cols     = 'date', 
    names_from  = 'location', 
    values_from = 'new_cases'
  )
covid_wide_01

# A tibble: 720 x 226
   date       Afghanistan Albania Algeria Andorra Angola Anguilla
   <date>           <dbl>   <dbl>   <dbl>   <dbl>  <dbl>    <dbl>
 1 2020-02-24           5      NA      NA      NA     NA       NA
 2 2020-02-25           0      NA       1      NA     NA       NA
 3 2020-02-26           0      NA       0      NA     NA       NA
 4 2020-02-27           0      NA       0      NA     NA       NA
 5 2020-02-28           0      NA       0      NA     NA       NA
 6 2020-02-29           0      NA       0      NA     NA       NA
 7 2020-03-01           0      NA       0      NA     NA       NA
 8 2020-03-02           0      NA       2       1     NA       NA
 9 2020-03-03           0      NA       2       0     NA       NA
10 2020-03-04           0      NA       7       0     NA       NA
# ... with 710 more rows, and 219 more variables: `Antigua and Barbuda` <dbl>,
#   Argentina <dbl>, Armenia <dbl>, Aruba <dbl>, Australia <dbl>,
#   Austria <dbl>, Azerbaijan <dbl>, Bahamas <dbl>, Bahrain <dbl>,
#   Bangladesh <dbl>, Barbados <dbl>, Belarus <dbl>, Belgium <dbl>,
#   Belize <dbl>, Benin <dbl>, Bermuda <dbl>, Bhutan <dbl>, Bolivia <dbl>,
#   `Bonaire Sint Eustatius and Saba` <dbl>, `Bosnia and Herzegovina` <dbl>,
#   Botswana <dbl>, Brazil <dbl>, `British Virgin Islands` <dbl>, ...

Notice that now we have 225 columns rather than 67 of the original data set with each cell conveying the whole information: new cases in a given date for a specific country. So, what if we wanted to have both new_cases and new_deaths columns in wide form? We just need to provide a vector with the desired variables in values_from. By default, the new columns will be named according to the following pattern: variable_location.

Since the variables names already contain a single underscore, it’s a good idea to set a different character as separator – a double underscore works fine. This is because we might need to reverse the operation later for a given task, then it’s much easier to identify it. Otherwise, we’d have to use regular expression to inform the specific position of the repeated character – for example, whether it’s the first or the second underscore.

covid_wide_02 <- covid_data %>% 
  pivot_wider(
    id_cols     = 'date', 
    names_from  = 'location', 
    values_from = c('new_cases', 'new_deaths'),
    names_sep   = '__'
  )
covid_wide_02

# A tibble: 720 x 451
   date       new_cases__Afghanistan new_cases__Albania new_cases__Algeria
   <date>                      <dbl>              <dbl>              <dbl>
 1 2020-02-24                      5                 NA                 NA
 2 2020-02-25                      0                 NA                  1
 3 2020-02-26                      0                 NA                  0
 4 2020-02-27                      0                 NA                  0
 5 2020-02-28                      0                 NA                  0
 6 2020-02-29                      0                 NA                  0
 7 2020-03-01                      0                 NA                  0
 8 2020-03-02                      0                 NA                  2
 9 2020-03-03                      0                 NA                  2
10 2020-03-04                      0                 NA                  7
# ... with 710 more rows, and 447 more variables: new_cases__Andorra <dbl>,
#   new_cases__Angola <dbl>, new_cases__Anguilla <dbl>,
#   `new_cases__Antigua and Barbuda` <dbl>, new_cases__Argentina <dbl>,
#   new_cases__Armenia <dbl>, new_cases__Aruba <dbl>,
#   new_cases__Australia <dbl>, new_cases__Austria <dbl>,
#   new_cases__Azerbaijan <dbl>, new_cases__Bahamas <dbl>,
#   new_cases__Bahrain <dbl>, new_cases__Bangladesh <dbl>, ...
…
In summary, long format may be preferable over wide format when the data set contains more than one grouping variable or we want to work on more than one variable. Besides, long format data sets are ideal for plotting with ggplot2 package as we’ll see later.

Therefore, it’s not unusual to convert a data set from wide to long format. The syntax is very similar to what we saw earlier when converting from long to wide format. The unique difference is in the cols argument, used to declare what columns we want to stack. However, since wide data sets usually have a large number of columns and we’re often interested in putting all of them in long format, it’s much easier to declare what columns we want to leave out (-).

covid_long_01 <- covid_wide_02 %>% 
  pivot_longer(
    cols      = -'date',
    names_to  = c('variable', 'location'),
    values_to = 'value',
    names_sep = '__'
  )
covid_long_01

# A tibble: 324,000 x 4
   date       variable  location            value
   <date>     <chr>     <chr>               <dbl>
 1 2020-02-24 new_cases Afghanistan             5
 2 2020-02-24 new_cases Albania                NA
 3 2020-02-24 new_cases Algeria                NA
 4 2020-02-24 new_cases Andorra                NA
 5 2020-02-24 new_cases Angola                 NA
 6 2020-02-24 new_cases Anguilla               NA
 7 2020-02-24 new_cases Antigua and Barbuda    NA
 8 2020-02-24 new_cases Argentina              NA
 9 2020-02-24 new_cases Armenia                NA
10 2020-02-24 new_cases Aruba                  NA
# ... with 323,990 more rows

Note that now even the variables (new_cases and new_deaths) are stored in a single column (variable). This is probably an abuse of language, but I call this a complete long format – as opposed to the original format where the data set was only partially in the long format (the variables were indeed in wide format). For most applications, I think this is the best way to organize the data.

Converting a data set between wide and long formats might not completely solve our problem. Sometimes, two pieces of information are merged in a single column. For example, suppose that the location column had both the continent and country names instead of only the country as in the original data set. We’ll call this data set covid_loc_cont.

# A tibble: 139,819 x 4
   location         date       new_cases new_deaths
   <chr>            <date>         <dbl>      <dbl>
 1 Afghanistan_Asia 2020-02-24         5         NA
 2 Afghanistan_Asia 2020-02-25         0         NA
 3 Afghanistan_Asia 2020-02-26         0         NA
 4 Afghanistan_Asia 2020-02-27         0         NA
 5 Afghanistan_Asia 2020-02-28         0         NA
 6 Afghanistan_Asia 2020-02-29         0         NA
 7 Afghanistan_Asia 2020-03-01         0         NA
 8 Afghanistan_Asia 2020-03-02         0         NA
 9 Afghanistan_Asia 2020-03-03         0         NA
10 Afghanistan_Asia 2020-03-04         0         NA
# ... with 139,809 more rows
…
