R for Economic Research - 7 The abc
…
# Rolling origin forecast resampling 
# A tibble: 44 x 2
   splits         id     
   <list>         <chr>  
 1 <split [36/1]> Slice01
 2 <split [37/1]> Slice02
 3 <split [38/1]> Slice03
 4 <split [39/1]> Slice04
 5 <split [40/1]> Slice05
 6 <split [41/1]> Slice06
 7 <split [42/1]> Slice07
 8 <split [43/1]> Slice08
 9 <split [44/1]> Slice09
10 <split [45/1]> Slice10
# ... with 34 more rows
…
    avg_fc = (arima_fc+ets_fc)/2,
    date = map_chr(
      .x = splits,
      .f = ~ (.x %>% 
                assessment()
              )$date %>% 
        as.character()
    )  %>% 
        zoo::as.yearmon()
    ) %>% 
  select(date, contains('fc')) %>% 
  right_join(cpi_df, by = 'date')
cpi_fc

# A tibble: 80 x 5
   date      ets_fc arima_fc avg_fc value
   <yearmon>  <dbl>    <dbl>  <dbl> <dbl>
 1 Jan 2019   0.166   0.330  0.248   0.41
 2 Feb 2019   0.179   0.364  0.271   0.48
 3 Mar 2019   0.285   0.414  0.349   0.75
 4 Apr 2019   0.416   0.567  0.492   0.41
 5 May 2019   0.444   0.377  0.411  -0.23
 6 Jun 2019   0.368   0.200  0.284   0.08
 7 Jul 2019   0.236   0.142  0.189   0.12
 8 Aug 2019   0.187   0.132  0.160  -0.06
 9 Sep 2019   0.187   0.0449 0.116  -0.1 
10 Oct 2019   0.126  -0.0230 0.0516  0.18
# ... with 70 more rows
…
